Estadística Computacional
…
Entonces la estimación del cociente de las tasas es \[\hat{\theta}=\frac{104/11037}{189/11034} = 0.55\] En la muestra los individuos que toman aspirina tienen únicamente 55% de los ataques que los que toman placebo. Sin embargo, lo que realmente nos interesa es \(\theta\): el cociente de tasas que observaríamos si pudieramos tratar a todos los hombres y no únicamente a una muestra.

Aquí es donde recurrimos a inferencia estadística:

\[0.43 < \theta < 0.70\] El verdadero valor de \(\theta\) esta en el intervalo \((0.43,0.70)\) con una confianza del 95%.

Ahora, el bootstrap es un método de simulación basado en datos para inferencia estadística. Si una muestra es una aproximación de la población que la generó, entoces podemos hacer muestreos de la muestra para calcular una estadística de interés y medir la exactitud en la misma.

En este caso tenemos los resultados del experimento en la variable trial.

trial <- data_frame(patient = 1:22071, 
  group = ifelse(patient <= 11037, "aspirin", "control"), 
  heart_attack = c(rep(TRUE, 104), rep(FALSE, 10933), rep(TRUE, 189), rep(FALSE, 10845)))
trial
#> # A tibble: 22,071 x 3
#>    patient   group heart_attack
#>      <int>   <chr>        <lgl>
#>  1       1 aspirin         TRUE
#>  2       2 aspirin         TRUE
#>  3       3 aspirin         TRUE
#>  4       4 aspirin         TRUE
#>  5       5 aspirin         TRUE
#>  6       6 aspirin         TRUE
#>  7       7 aspirin         TRUE
#>  8       8 aspirin         TRUE
#>  9       9 aspirin         TRUE
#> 10      10 aspirin         TRUE
#> # ... with 22,061 more rows
…
