datos_limpios_gather_spread.utf8.md
…
gather: recibe mltiples columnas y las junta en pares de valores y nombres y alarga los datos.

spread: recibe 2 columnas y las separa, haciendo los datos ms anchos.

Repasaremos los problemas ms comunes que se encuentran en conjuntos de datos sucios y mostraremos como se puede manipular la tabla de datos (usando las funciones gather y spread) con el fin de estructurarla para que cumpla los principios de datos limpios.

Los encabezados de las columanas son valores

Usaremos ejemplos para entender los conceptos ms facilmente. Comenzaremos con una tabla de datos que contiene las mediciones de partculas suspendidas PM2.5 de la red automtica de monitoreo atmosfrico (RAMA) para los primeros meses del 2019.

library(tidyverse)
library(estcomp)
pm25_2019
#> # A tibble: 5,088 x 26
#>    date        hour   AJM   AJU   BJU   CAM   CCA COY   FAR     GAM   HGM
#>    <date>     <dbl> <dbl> <dbl> <dbl> <dbl> <dbl> <lgl> <lgl> <dbl> <dbl>
#>  1 2019-01-01     1    19    35    62    90    66 NA    NA       NA    56
#>  2 2019-01-01     2    17    24    88   104    84 NA    NA       NA    61
#>  3 2019-01-01     3    14    20   107   140    95 NA    NA       NA    74
#>  4 2019-01-01     4     6    15   101   162    97 NA    NA       NA    90
#>  5 2019-01-01     5     4     8   121   133    88 NA    NA       NA    90
#>  6 2019-01-01     6     7     7    93   106    77 NA    NA       NA   106
#>  7 2019-01-01     7    12     8    84    98    51 NA    NA       NA   115
#>  8 2019-01-01     8    15     7   101    82    39 NA    NA       NA    90
#>  9 2019-01-01     9    24     3    89    54    26 NA    NA       NA    90
#> 10 2019-01-01    10    24    NA    88    76    26 NA    NA       NA    99
#> #  with 5,078 more rows, and 15 more variables: INN <dbl>, MER <dbl>,
#> #   MGH <dbl>, MON <dbl>, MPA <lgl>, NEZ <dbl>, PED <dbl>, SAC <lgl>,
#> #   SAG <dbl>, SFE <dbl>, SJA <lgl>, TLA <dbl>, UAX <dbl>, UIZ <dbl>,
#> #   XAL <dbl>
…
Otro ejemplo, veamos los datos df_edu, cuntas variables tenemos?

df_edu
#> # A tibble: 7,371 x 16
#>    state_code municipio_code region state_name state_abbr municipio_name
#>    <chr>      <chr>          <chr>  <chr>      <chr>      <chr>         
#>  1 01         001            01001  Aguascali AGS        Aguascalientes
#>  2 01         001            01001  Aguascali AGS        Aguascalientes
#>  3 01         001            01001  Aguascali AGS        Aguascalientes
#>  4 01         002            01002  Aguascali AGS        Asientos      
#>  5 01         002            01002  Aguascali AGS        Asientos      
#>  6 01         002            01002  Aguascali AGS        Asientos      
#>  7 01         003            01003  Aguascali AGS        Calvillo      
#>  8 01         003            01003  Aguascali AGS        Calvillo      
#>  9 01         003            01003  Aguascali AGS        Calvillo      
#> 10 01         004            01004  Aguascali AGS        Coso         
#> #  with 7,361 more rows, and 10 more variables: sex <chr>, pop_15 <dbl>,
#> #   no_school <dbl>, preschool <dbl>, elementary <dbl>, secondary <dbl>,
#> #   highschool <dbl>, higher_edu <dbl>, other <dbl>, schoolyrs <dbl>
…
De manera similar a los ejemplos anteriores, utiliza la funcin gather() para apilar las columnas correspondientes a rea-grado.

enlacep_long <- gather(enlacep_sub_2013, AREA_GRADO, PUNTAJE, 
    contains("PUNT"), na.rm = TRUE)
enlacep_long
#> # A tibble: 11,259 x 12
#>    CVE_ENT NOM_ENT CCT   TURNO ESCUELA TIPO  CVE_MUN NOM_MUN CVE_LOC
#>    <chr>   <chr>   <chr> <chr> <chr>   <chr> <chr>   <chr>   <chr>  
#>  1 15      MEXICO  15DP MATU GUADAL GENE 003     ACULCO  0026   
#>  2 24      SAN LU 24DP MATU JOSE M GENE 007     CEDRAL  0045   
#>  3 25      SINALOA 25DP MATU PROF.  GENE 006     CULIAC 0529   
#>  4 15      MEXICO  15DP MATU CUAUHT GENE 037     HUIXQU 0017   
#>  5 06      COLIMA  06DP MATU CLUB D GENE 002     COLIMA  0001   
#>  6 13      HIDALGO 13DP MATU EMILIA IND 059     TECOZA 0048   
#>  7 10      DURANGO 10DP MATU IGNACI GENE 015     NAZAS   0026   
#>  8 21      PUEBLA  21DP MATU IGNACI GENE 027     CALTEP 0002   
#>  9 25      SINALOA 25DP MATU PRESID GENE 006     CULIAC 0430   
#> 10 32      ZACATE 32DP MATU JOSE M GENE 014     GENERA 0013   
#> #  with 11,249 more rows, and 3 more variables: NOM_LOC <chr>,
#> #   AREA_GRADO <chr>, PUNTAJE <dbl>

Piensa en como podemos separar la variable rea-grado en dos columnas.

Ahora separaremos las variables rea y grado de la columna AREA_GRADO, para ello debemos pasar a la funcin separate(), esta recibe como parmetros:

el nombre de la base de datos,

el nombre de la variable que deseamos separar en ms de una,

la posicin de donde deseamos cortar (hay ms opciones para especificar como separar, ver ?separate). El default es separar valores en todos los lugares que encuentre un caracter que no es alfanumrico (espacio, guin,).

enlacep_tidy <- separate(data = enlacep_long, col = AREA_GRADO, 
    into = c("AREA", "GRADO"), sep = 9)
enlacep_tidy
#> # A tibble: 11,259 x 13
#>    CVE_ENT NOM_ENT CCT   TURNO ESCUELA TIPO  CVE_MUN NOM_MUN CVE_LOC
#>    <chr>   <chr>   <chr> <chr> <chr>   <chr> <chr>   <chr>   <chr>  
#>  1 15      MEXICO  15DP MATU GUADAL GENE 003     ACULCO  0026   
#>  2 24      SAN LU 24DP MATU JOSE M GENE 007     CEDRAL  0045   
#>  3 25      SINALOA 25DP MATU PROF.  GENE 006     CULIAC 0529   
#>  4 15      MEXICO  15DP MATU CUAUHT GENE 037     HUIXQU 0017   
#>  5 06      COLIMA  06DP MATU CLUB D GENE 002     COLIMA  0001   
#>  6 13      HIDALGO 13DP MATU EMILIA IND 059     TECOZA 0048   
#>  7 10      DURANGO 10DP MATU IGNACI GENE 015     NAZAS   0026   
#>  8 21      PUEBLA  21DP MATU IGNACI GENE 027     CALTEP 0002   
#>  9 25      SINALOA 25DP MATU PRESID GENE 006     CULIAC 0430   
#> 10 32      ZACATE 32DP MATU JOSE M GENE 014     GENERA 0013   
#> #  with 11,249 more rows, and 4 more variables: NOM_LOC <chr>,
#> #   AREA <chr>, GRADO <chr>, PUNTAJE <dbl>
…
Variables almacenadas en filas y columnas

El problema ms difcil es cuando las variables estn tanto en filas como en columnas, veamos una base de datos de fertilidad. Cules son las variables en estos datos?

data("df_fertility")
df_fertility
#> # A tibble: 306 x 11
#>    state size_localidad est   age_15_19 age_20_24 age_25_29 age_30_34
#>    <chr> <chr>          <chr>     <dbl>     <dbl>     <dbl>     <dbl>
#>  1 01 A Menos de 2 50 Valor     74.2     175.      175.      102.  
#>  2 01 A Menos de 2 50 Erro      6.71     11.0       9.35      8.05
#>  3 01 A 2 500-14 999  Valor     82.5     171.      140.      103.  
#>  4 01 A 2 500-14 999  Erro      9.79     12.5      10.4       8.76
#>  5 01 A 15 000-49 999 Valor     72.6     146.      147.       99.0 
#>  6 01 A 15 000-49 999 Erro      7.07     10.8      10.5       8.11
#>  7 01 A 100 000 y ms Valor     66.3     120.      102.       84.2 
#>  8 01 A 100 000 y ms Erro      7.57      8.66      8.98      8.59
#>  9 02 B Menos de 2 50 Valor     89.6     158.      117.       86.0 
#> 10 02 B Menos de 2 50 Erro     15.8      17.2      13.2      12.3 
#> #  with 296 more rows, and 4 more variables: age_35_39 <dbl>,
#> #   age_40_44 <dbl>, age_45_49 <dbl>, global <dbl>

Estos datos tienen variables en columnas individuales (state, size_localidad), en mltiples columnas (grupo de edad, age_15_19,..) y en filas (Valor y Error estndar).

Comencemos por apilar las columnas.

fertility_long <- gather(df_fertility, age_bracket, value, age_15_19:global, 
    na.rm = TRUE)
fertility_long
#> # A tibble: 2,448 x 5
#>    state             size_localidad          est          age_bracket value
#>    <chr>             <chr>                   <chr>        <chr>       <dbl>
#>  1 01 Aguascalientes Menos de 2 500 habitan Valor        age_15_19   74.2 
#>  2 01 Aguascalientes Menos de 2 500 habitan Error estn age_15_19    6.71
#>  3 01 Aguascalientes 2 500-14 999 habitantes Valor        age_15_19   82.5 
#>  4 01 Aguascalientes 2 500-14 999 habitantes Error estn age_15_19    9.79
#>  5 01 Aguascalientes 15 000-49 999 habitant Valor        age_15_19   72.6 
#>  6 01 Aguascalientes 15 000-49 999 habitant Error estn age_15_19    7.07
#>  7 01 Aguascalientes 100 000 y ms habitant Valor        age_15_19   66.3 
#>  8 01 Aguascalientes 100 000 y ms habitant Error estn age_15_19    7.57
#>  9 02 Baja Californ Menos de 2 500 habitan Valor        age_15_19   89.6 
#> 10 02 Baja Californ Menos de 2 500 habitan Error estn age_15_19   15.8 
#> #  with 2,438 more rows

Podemos crear algunas variables adicionales.

fertility_vars <- fertility_long %>% 
    mutate(
        state_code = str_sub(state, 1, 2), 
        state_name = str_sub(state, 4)
        ) %>%
    select(-state)
fertility_vars
#> # A tibble: 2,448 x 6
#>    size_localidad       est       age_bracket value state_code state_name  
#>    <chr>                <chr>     <chr>       <dbl> <chr>      <chr>       
#>  1 Menos de 2 500 habi Valor     age_15_19   74.2  01         Aguascalien
#>  2 Menos de 2 500 habi Error es age_15_19    6.71 01         Aguascalien
#>  3 2 500-14 999 habita Valor     age_15_19   82.5  01         Aguascalien
#>  4 2 500-14 999 habita Error es age_15_19    9.79 01         Aguascalien
#>  5 15 000-49 999 habit Valor     age_15_19   72.6  01         Aguascalien
#>  6 15 000-49 999 habit Error es age_15_19    7.07 01         Aguascalien
#>  7 100 000 y ms habit Valor     age_15_19   66.3  01         Aguascalien
#>  8 100 000 y ms habit Error es age_15_19    7.57 01         Aguascalien
#>  9 Menos de 2 500 habi Valor     age_15_19   89.6  02         Baja Califo
#> 10 Menos de 2 500 habi Error es age_15_19   15.8  02         Baja Califo
#> #  with 2,438 more rows
…
