Manipulación y agrupación de datos
…
Esta base de datos tiene 3 variables: religión, ingreso y frecuencia. Para limpiarla es necesario apilar las columnas (alargar los datos). Notemos que al alargar los datos desapareceran las columnas que se agrupan y dan lugar a dos nuveas columnas: la correspondiente a clave y la correspondiente a valor. Entonces, para alargar una base de datos usamos la función gather que recibe los argumentos:

data: base de datos que vamos a reestructurar.

key: nombre de la nueva variable que contiene lo que fueron los nombres de columnas que apilamos.

value: nombre de la variable que almacenará los valores que corresponden a cada key.

…: lo último que especificamos son las columnas que vamos a apilar, la notación para seleccionarlas es la misma que usamos con select().

pew_tidy <- gather(data = pew, income, frequency, -religion)
pew_tidy
#> # A tibble: 180 x 3
#>                   religion income frequency
#>                      <chr>  <chr>     <int>
#>  1                Agnostic  <$10k        27
#>  2                 Atheist  <$10k        12
#>  3                Buddhist  <$10k        27
#>  4                Catholic  <$10k       418
#>  5      Don’t know/refused  <$10k        15
#>  6        Evangelical Prot  <$10k       575
#>  7                   Hindu  <$10k         1
#>  8 Historically Black Prot  <$10k       228
#>  9       Jehovah's Witness  <$10k        20
#> 10                  Jewish  <$10k        19
#> # ... with 170 more rows
…
#>   wk66 = col_character(),
#>   wk67 = col_character(),
#>   wk68 = col_character(),
#>   wk69 = col_character(),
#>   wk70 = col_character(),
#>   wk71 = col_character(),
#>   wk72 = col_character(),
#>   wk73 = col_character(),
#>   wk74 = col_character(),
#>   wk75 = col_character(),
#>   wk76 = col_character()
#> )
#> See spec(...) for full column specifications.
billboard
#> # A tibble: 317 x 81
#>     year         artist                   track     time date.entered
#>    <int>          <chr>                   <chr>   <time>       <date>
#>  1  2000          2 Pac Baby Don't Cry (Keep... 04:22:00   2000-02-26
#>  2  2000        2Ge+her The Hardest Part Of ... 03:15:00   2000-09-02
#>  3  2000   3 Doors Down              Kryptonite 03:53:00   2000-04-08
#>  4  2000   3 Doors Down                   Loser 04:24:00   2000-10-21
#>  5  2000       504 Boyz           Wobble Wobble 03:35:00   2000-04-15
#>  6  2000           98^0 Give Me Just One Nig... 03:24:00   2000-08-19
#>  7  2000        A*Teens           Dancing Queen 03:44:00   2000-07-08
#>  8  2000        Aaliyah           I Don't Wanna 04:15:00   2000-01-29
#>  9  2000        Aaliyah               Try Again 04:03:00   2000-03-18
#> 10  2000 Adams, Yolanda           Open My Heart 05:30:00   2000-08-26
#> # ... with 307 more rows, and 76 more variables: wk1 <int>, wk2 <int>,
#> #   wk3 <int>, wk4 <int>, wk5 <int>, wk6 <int>, wk7 <int>, wk8 <int>,
#> #   wk9 <int>, wk10 <int>, wk11 <int>, wk12 <int>, wk13 <int>, wk14 <int>,
#> #   wk15 <int>, wk16 <int>, wk17 <int>, wk18 <int>, wk19 <int>,
#> #   wk20 <int>, wk21 <int>, wk22 <int>, wk23 <int>, wk24 <int>,
#> #   wk25 <int>, wk26 <int>, wk27 <int>, wk28 <int>, wk29 <int>,
#> #   wk30 <int>, wk31 <int>, wk32 <int>, wk33 <int>, wk34 <int>,
#> #   wk35 <int>, wk36 <int>, wk37 <int>, wk38 <int>, wk39 <int>,
#> #   wk40 <int>, wk41 <int>, wk42 <int>, wk43 <int>, wk44 <int>,
#> #   wk45 <int>, wk46 <int>, wk47 <int>, wk48 <int>, wk49 <int>,
#> #   wk50 <int>, wk51 <int>, wk52 <int>, wk53 <int>, wk54 <int>,
#> #   wk55 <int>, wk56 <int>, wk57 <int>, wk58 <int>, wk59 <int>,
#> #   wk60 <int>, wk61 <int>, wk62 <int>, wk63 <int>, wk64 <int>,
#> #   wk65 <int>, wk66 <chr>, wk67 <chr>, wk68 <chr>, wk69 <chr>,
#> #   wk70 <chr>, wk71 <chr>, wk72 <chr>, wk73 <chr>, wk74 <chr>,
#> #   wk75 <chr>, wk76 <chr>

Notemos que el rank en cada semana (una vez que entró a la lista) está guardado en 75 columnas wk1 a wk75, este tipo de almacenamiento no es limpio pero puede ser útil al momento de ingresar la información.

Para tener datos limpios apilamos las semanas de manera que sea una sola columna (nuevamente alargamos los datos):

billboard_long <- gather(billboard, week, rank, wk1:wk76, na.rm = TRUE)
billboard_long
#> # A tibble: 5,307 x 7
#>     year         artist                   track     time date.entered
#>  * <int>          <chr>                   <chr>   <time>       <date>
#>  1  2000          2 Pac Baby Don't Cry (Keep... 04:22:00   2000-02-26
#>  2  2000        2Ge+her The Hardest Part Of ... 03:15:00   2000-09-02
#>  3  2000   3 Doors Down              Kryptonite 03:53:00   2000-04-08
#>  4  2000   3 Doors Down                   Loser 04:24:00   2000-10-21
#>  5  2000       504 Boyz           Wobble Wobble 03:35:00   2000-04-15
#>  6  2000           98^0 Give Me Just One Nig... 03:24:00   2000-08-19
#>  7  2000        A*Teens           Dancing Queen 03:44:00   2000-07-08
#>  8  2000        Aaliyah           I Don't Wanna 04:15:00   2000-01-29
#>  9  2000        Aaliyah               Try Again 04:03:00   2000-03-18
#> 10  2000 Adams, Yolanda           Open My Heart 05:30:00   2000-08-26
#> # ... with 5,297 more rows, and 2 more variables: week <chr>, rank <chr>

Notemos que en esta ocasión especificamos las columnas que vamos a apilar indicando el nombre de la primera de ellas seguido de : y por último el nombre de la última variable a apilar. Por otra parte, la instrucción na.rm = TRUE se utiliza para eliminar los renglones con valores faltantes en la columna de value (rank), esto es, eliminamos aquellas observaciones que tenían NA en la columnas wknum de la tabla ancha. Ahora realizamos una limpieza adicional creando mejores variables de fecha.

billboard_tidy <- billboard_long %>%
  mutate(
    week = parse_number(week),
    date = date.entered + 7 * (week - 1), 
    rank = as.numeric(rank)
    ) %>%
    select(-date.entered)
billboard_tidy
#> # A tibble: 5,307 x 7
#>     year         artist                   track     time  week  rank
#>    <int>          <chr>                   <chr>   <time> <dbl> <dbl>
#>  1  2000          2 Pac Baby Don't Cry (Keep... 04:22:00     1    87
#>  2  2000        2Ge+her The Hardest Part Of ... 03:15:00     1    91
#>  3  2000   3 Doors Down              Kryptonite 03:53:00     1    81
#>  4  2000   3 Doors Down                   Loser 04:24:00     1    76
#>  5  2000       504 Boyz           Wobble Wobble 03:35:00     1    57
#>  6  2000           98^0 Give Me Just One Nig... 03:24:00     1    51
#>  7  2000        A*Teens           Dancing Queen 03:44:00     1    97
#>  8  2000        Aaliyah           I Don't Wanna 04:15:00     1    84
#>  9  2000        Aaliyah               Try Again 04:03:00     1    59
#> 10  2000 Adams, Yolanda           Open My Heart 05:30:00     1    76
#> # ... with 5,297 more rows, and 1 more variables: date <date>
…
tb <- read_csv("data/tb.csv")
#> Parsed with column specification:
#> cols(
#>   .default = col_integer(),
#>   year = col_character()
#> )
#> See spec(...) for full column specifications.
#> Warning in rbind(names(probs), probs_f): number of columns of result is not
#> a multiple of vector length (arg 1)
#> Warning: 5769 parsing failures.
#> row # A tibble: 5 x 5 col     row   col   expected     actual          file expected   <int> <chr>      <chr>      <chr>         <chr> actual 1     1  <NA> 22 columns 23 columns 'data/tb.csv' file 2     2  <NA> 22 columns 23 columns 'data/tb.csv' row 3     3  <NA> 22 columns 23 columns 'data/tb.csv' col 4     4  <NA> 22 columns 23 columns 'data/tb.csv' expected 5     5  <NA> 22 columns 23 columns 'data/tb.csv'
#> ... ................. ... ................................................. ........ ................................................. ...... ................................................. .... ................................................. ... ................................................. ... ................................................. ........ .................................................
#> See problems(...) for more details.
tb
#> # A tibble: 5,769 x 22
#>     iso2  year new_sp_m04 new_sp_m514 new_sp_m014 new_sp_m1524
#>    <int> <chr>      <int>       <int>       <int>        <int>
#>  1     1    AD       1989          NA          NA           NA
#>  2     2    AD       1990          NA          NA           NA
#>  3     3    AD       1991          NA          NA           NA
#>  4     4    AD       1992          NA          NA           NA
#>  5     5    AD       1993          NA          NA           NA
#>  6     6    AD       1994          NA          NA           NA
#>  7     7    AD       1996          NA          NA            0
#>  8     8    AD       1997          NA          NA            0
#>  9     9    AD       1998          NA          NA            0
#> 10    10    AD       1999          NA          NA            0
#> # ... with 5,759 more rows, and 16 more variables: new_sp_m2534 <int>,
#> #   new_sp_m3544 <int>, new_sp_m4554 <int>, new_sp_m5564 <int>,
#> #   new_sp_m65 <int>, new_sp_mu <int>, new_sp_f04 <int>,
#> #   new_sp_f514 <int>, new_sp_f014 <int>, new_sp_f1524 <int>,
#> #   new_sp_f2534 <int>, new_sp_f3544 <int>, new_sp_f4554 <int>,
#> #   new_sp_f5564 <int>, new_sp_f65 <int>, new_sp_fu <int>
…
            Piensa en como podemos separar la “variable” sexo-edad en dos columnas.

Ahora separaremos las variables sexo y edad de la columna demo, para ello debemos pasar a la función separate(), esta recibe como parámetros:

el nombre de la base de datos,

el nombre de la variable que deseamos separar en más de una,

la posición de donde deseamos “cortar” (hay más opciones para especificar como separar, ver ?separate). El default es separar valores en todos los lugares que encuentre un caracter que no es alfanumérico (espacio, guión,…).

tb_tidy <- separate(tb_long, demo, c("sex", "age"), 8)
tb_tidy
#> # A tibble: 41,247 x 5
#>     iso2  year      sex   age     n
#>  * <int> <chr>    <chr> <chr> <int>
#>  1     1    AD new_sp_m    04  1989
#>  2     2    AD new_sp_m    04  1990
#>  3     3    AD new_sp_m    04  1991
#>  4     4    AD new_sp_m    04  1992
#>  5     5    AD new_sp_m    04  1993
#>  6     6    AD new_sp_m    04  1994
#>  7     7    AD new_sp_m    04  1996
#>  8     8    AD new_sp_m    04  1997
#>  9     9    AD new_sp_m    04  1998
#> 10    10    AD new_sp_m    04  1999
#> # ... with 41,237 more rows
…
Estos datos tienen variables en columnas individuales (id, año, mes), en múltiples columnas (día, d1-d31) y en filas (tmin, tmax). Comencemos por apilar las columnas.

clima_long <- gather(clima, day, value, d1:d31, na.rm = TRUE)
clima_long
#> # A tibble: 66 x 6
#>             id  year month element   day value
#>  *       <chr> <int> <int>   <chr> <chr> <chr>
#>  1 MX000017004  2010    12    TMAX    d1   299
#>  2 MX000017004  2010    12    TMIN    d1   138
#>  3 MX000017004  2010     2    TMAX    d2   273
#>  4 MX000017004  2010     2    TMIN    d2   144
#>  5 MX000017004  2010    11    TMAX    d2   313
#>  6 MX000017004  2010    11    TMIN    d2   163
#>  7 MX000017004  2010     2    TMAX    d3   241
#>  8 MX000017004  2010     2    TMIN    d3   144
#>  9 MX000017004  2010     7    TMAX    d3   286
#> 10 MX000017004  2010     7    TMIN    d3   175
#> # ... with 56 more rows

Podemos crear algunas variables adicionales.

clima_vars <- clima_long %>% 
  mutate(day = parse_number(day), 
    value = as.numeric(value) / 10) %>%
  select(id, year, month, day, element, value) %>%
  arrange(id, year, month, day)
clima_vars
#> # A tibble: 66 x 6
#>             id  year month   day element value
#>          <chr> <int> <int> <dbl>   <chr> <dbl>
#>  1 MX000017004  2010     1    30    TMAX  27.8
#>  2 MX000017004  2010     1    30    TMIN  14.5
#>  3 MX000017004  2010     2     2    TMAX  27.3
#>  4 MX000017004  2010     2     2    TMIN  14.4
#>  5 MX000017004  2010     2     3    TMAX  24.1
#>  6 MX000017004  2010     2     3    TMIN  14.4
#>  7 MX000017004  2010     2    11    TMAX  29.7
#>  8 MX000017004  2010     2    11    TMIN  13.4
#>  9 MX000017004  2010     2    23    TMAX  29.9
#> 10 MX000017004  2010     2    23    TMIN  10.7
#> # ... with 56 more rows

Finalmente, la columna element no es una variable, sino que almacena el nombre de dos variables, la operación que debemos aplicar (spread) es el inverso de apilar (gather):

clima_tidy <- spread(clima_vars, element, value)
clima_tidy
#> # A tibble: 33 x 6
#>             id  year month   day  TMAX  TMIN
#>  *       <chr> <int> <int> <dbl> <dbl> <dbl>
#>  1 MX000017004  2010     1    30  27.8  14.5
#>  2 MX000017004  2010     2     2  27.3  14.4
#>  3 MX000017004  2010     2     3  24.1  14.4
#>  4 MX000017004  2010     2    11  29.7  13.4
#>  5 MX000017004  2010     2    23  29.9  10.7
#>  6 MX000017004  2010     3     5  32.1  14.2
#>  7 MX000017004  2010     3    10  34.5  16.8
#>  8 MX000017004  2010     3    16  31.1  17.6
#>  9 MX000017004  2010     4    27  36.3  16.7
#> 10 MX000017004  2010     5    27  33.2  18.2
#> # ... with 23 more rows
…
4. Mas de un tipo de observación en una misma tabla

En ocasiones las bases de datos involucran valores en diferentes niveles, en diferentes tipos de unidad observacional. En la limpieza de datos, cada unidad observacional debe estar almacenada en su propia tabla (esto esta ligado a normalización de una base de datos), es importante para evitar inconsistencias en los datos.

¿Cuáles son las unidades observacionales de los datos de billboard?

billboard_tidy
#> # A tibble: 5,307 x 7
#>     year         artist                   track     time  week  rank
#>    <int>          <chr>                   <chr>   <time> <dbl> <dbl>
#>  1  2000          2 Pac Baby Don't Cry (Keep... 04:22:00     1    87
#>  2  2000        2Ge+her The Hardest Part Of ... 03:15:00     1    91
#>  3  2000   3 Doors Down              Kryptonite 03:53:00     1    81
#>  4  2000   3 Doors Down                   Loser 04:24:00     1    76
#>  5  2000       504 Boyz           Wobble Wobble 03:35:00     1    57
#>  6  2000           98^0 Give Me Just One Nig... 03:24:00     1    51
#>  7  2000        A*Teens           Dancing Queen 03:44:00     1    97
#>  8  2000        Aaliyah           I Don't Wanna 04:15:00     1    84
#>  9  2000        Aaliyah               Try Again 04:03:00     1    59
#> 10  2000 Adams, Yolanda           Open My Heart 05:30:00     1    76
#> # ... with 5,297 more rows, and 1 more variables: date <date>

Separemos esta base de datos en dos: la tabla canción que almacena artista, nombre de la canción y duración; la tabla rank que almacena el ranking de la canción en cada semana.

song <- billboard_tidy %>% 
  select(artist, track, year, time) %>%
  unique() %>%
  arrange(artist) %>%
  mutate(song_id = row_number(artist))
song
#> # A tibble: 317 x 5
#>            artist                   track  year     time song_id
#>             <chr>                   <chr> <int>   <time>   <int>
#>  1          2 Pac Baby Don't Cry (Keep...  2000 04:22:00       1
#>  2        2Ge+her The Hardest Part Of ...  2000 03:15:00       2
#>  3   3 Doors Down              Kryptonite  2000 03:53:00       3
#>  4   3 Doors Down                   Loser  2000 04:24:00       4
#>  5       504 Boyz           Wobble Wobble  2000 03:35:00       5
#>  6           98^0 Give Me Just One Nig...  2000 03:24:00       6
#>  7        A*Teens           Dancing Queen  2000 03:44:00       7
#>  8        Aaliyah           I Don't Wanna  2000 04:15:00       8
#>  9        Aaliyah               Try Again  2000 04:03:00       9
#> 10 Adams, Yolanda           Open My Heart  2000 05:30:00      10
#> # ... with 307 more rows

rank <- billboard_tidy %>%
  left_join(song, c("artist", "track", "year", "time")) %>%
  select(song_id, date, week, rank) %>%
  arrange(song_id, date) %>%
  tbl_df
rank
#> # A tibble: 5,307 x 4
#>    song_id       date  week  rank
#>      <int>     <date> <dbl> <dbl>
#>  1       1 2000-02-26     1    87
#>  2       1 2000-03-04     2    82
#>  3       1 2000-03-11     3    72
#>  4       1 2000-03-18     4    77
#>  5       1 2000-03-25     5    87
#>  6       1 2000-04-01     6    94
#>  7       1 2000-04-08     7    99
#>  8       2 2000-09-02     1    91
#>  9       2 2000-09-09     2    87
#> 10       2 2000-09-16     3    92
#> # ... with 5,297 more rows
…
Después le asignamos el nombre del csv al nombre de cada elemento del vector. Este paso se realiza para preservar los nombres de los archivos ya que estos los asignaremos a una variable mas adelante.

paths <- set_names(paths, basename(paths))

La función map_df itera sobre cada dirección, lee el csv en dicha dirección y los combina en un data frame.

specdata_us <- map_df(paths, ~read_csv(., col_types = "Tddi"), .id = "filename")

# eliminamos la basura del id
specdata <- specdata_us %>%
  mutate(monitor = parse_number(filename)) %>%
  select(id = ID, monitor, date = Date, sulfate, nitrate)
specdata
#> # A tibble: 772,087 x 5
#>       id monitor       date sulfate nitrate
#>    <int>   <dbl>     <dttm>   <dbl>   <dbl>
#>  1     1       1 2003-01-01      NA      NA
#>  2     1       1 2003-01-02      NA      NA
#>  3     1       1 2003-01-03      NA      NA
#>  4     1       1 2003-01-04      NA      NA
#>  5     1       1 2003-01-05      NA      NA
#>  6     1       1 2003-01-06      NA      NA
#>  7     1       1 2003-01-07      NA      NA
#>  8     1       1 2003-01-08      NA      NA
#>  9     1       1 2003-01-09      NA      NA
#> 10     1       1 2003-01-10      NA      NA
#> # ... with 772,077 more rows
…
#>   minute = col_integer(),
#>   dep = col_integer(),
#>   arr = col_integer(),
#>   dep_delay = col_integer(),
#>   arr_delay = col_integer(),
#>   carrier = col_character(),
#>   flight = col_integer(),
#>   dest = col_character(),
#>   plane = col_character(),
#>   cancelled = col_integer(),
#>   time = col_integer(),
#>   dist = col_integer()
#> )
flights
#> # A tibble: 227,496 x 14
#>                   date  hour minute   dep   arr dep_delay arr_delay
#>                 <dttm> <int>  <int> <int> <int>     <int>     <int>
#>  1 2011-01-01 12:00:00    14      0  1400  1500         0       -10
#>  2 2011-01-02 12:00:00    14      1  1401  1501         1        -9
#>  3 2011-01-03 12:00:00    13     52  1352  1502        -8        -8
#>  4 2011-01-04 12:00:00    14      3  1403  1513         3         3
#>  5 2011-01-05 12:00:00    14      5  1405  1507         5        -3
#>  6 2011-01-06 12:00:00    13     59  1359  1503        -1        -7
#>  7 2011-01-07 12:00:00    13     59  1359  1509        -1        -1
#>  8 2011-01-08 12:00:00    13     55  1355  1454        -5       -16
#>  9 2011-01-09 12:00:00    14     43  1443  1554        43        44
#> 10 2011-01-10 12:00:00    14     43  1443  1553        43        43
#> # ... with 227,486 more rows, and 7 more variables: carrier <chr>,
#> #   flight <int>, dest <chr>, plane <chr>, cancelled <int>, time <int>,
#> #   dist <int>
…
